\headcommand {\slideentry {0}{0}{1}{1/1}{}{0}}
\headcommand {\beamer@framepages {1}{1}}
\headcommand {\beamer@sectionpages {1}{1}}
\headcommand {\beamer@subsectionpages {1}{1}}
\headcommand {\sectionentry {1}{Introduction}{2}{Introduction}{0}}
\headcommand {\slideentry {1}{0}{1}{2/5}{}{0}}
\headcommand {\beamer@framepages {2}{5}}
\headcommand {\beamer@subsectionpages {2}{5}}
\headcommand {\beamer@subsectionentry {0}{1}{1}{6}{Structure}}
\headcommand {\slideentry {1}{1}{1}{6/6}{Structure}{0}}
\headcommand {\beamer@framepages {6}{6}}
\headcommand {\beamer@sectionpages {2}{6}}
\headcommand {\beamer@subsectionpages {6}{6}}
\headcommand {\sectionentry {2}{The Model}{7}{The Model}{0}}
\headcommand {\slideentry {2}{0}{1}{7/7}{}{0}}
\headcommand {\beamer@framepages {7}{7}}
\headcommand {\beamer@subsectionpages {7}{7}}
\headcommand {\beamer@subsectionentry {0}{2}{1}{8}{Idea}}
\headcommand {\slideentry {2}{1}{1}{8/11}{Idea}{0}}
\headcommand {\beamer@framepages {8}{11}}
\headcommand {\beamer@subsectionpages {8}{11}}
\headcommand {\beamer@subsectionentry {0}{2}{2}{12}{Concept}}
\headcommand {\slideentry {2}{2}{1}{12/13}{Concept}{0}}
\headcommand {\beamer@framepages {12}{13}}
\headcommand {\slideentry {2}{2}{2}{14/15}{Concept}{0}}
\headcommand {\beamer@framepages {14}{15}}
\headcommand {\slideentry {2}{2}{3}{16/20}{Concept}{0}}
\headcommand {\beamer@framepages {16}{20}}
\headcommand {\slideentry {2}{2}{4}{21/29}{Concept}{0}}
\headcommand {\beamer@framepages {21}{29}}
\headcommand {\beamer@sectionpages {7}{29}}
\headcommand {\beamer@subsectionpages {12}{29}}
\headcommand {\sectionentry {3}{Project Progress}{30}{Project Progress}{0}}
\headcommand {\slideentry {3}{0}{1}{30/30}{}{0}}
\headcommand {\beamer@framepages {30}{30}}
\headcommand {\beamer@subsectionpages {30}{30}}
\headcommand {\beamer@subsectionentry {0}{3}{1}{31}{Schedule}}
\headcommand {\slideentry {3}{1}{1}{31/33}{Schedule}{0}}
\headcommand {\beamer@framepages {31}{33}}
\headcommand {\beamer@subsectionpages {31}{33}}
\headcommand {\beamer@subsectionentry {0}{3}{2}{34}{Control Software}}
\headcommand {\slideentry {3}{2}{1}{34/41}{Control Software}{0}}
\headcommand {\beamer@framepages {34}{41}}
\headcommand {\beamer@subsectionpages {34}{41}}
\headcommand {\beamer@subsectionentry {0}{3}{3}{42}{OGS}}
\headcommand {\slideentry {3}{3}{1}{42/54}{OGS}{0}}
\headcommand {\beamer@framepages {42}{54}}
\headcommand {\beamer@sectionpages {30}{54}}
\headcommand {\beamer@subsectionpages {42}{54}}
\headcommand {\sectionentry {4}{\textbf {S}aline \textbf {A}quifer \textbf {L}iking \textbf {T}rees}{55}{\textbf {S}aline \textbf {A}quifer \textbf {L}iking \textbf {T}rees}{0}}
\headcommand {\slideentry {4}{0}{1}{55/55}{}{0}}
\headcommand {\beamer@framepages {55}{55}}
\headcommand {\beamer@subsectionpages {55}{55}}
\headcommand {\beamer@subsectionentry {0}{4}{1}{56}{Illustration}}
\headcommand {\slideentry {4}{1}{1}{56/57}{Illustration}{0}}
\headcommand {\beamer@framepages {56}{57}}
\headcommand {\beamer@subsectionpages {56}{57}}
\headcommand {\beamer@subsectionentry {0}{4}{2}{58}{Outlook}}
\headcommand {\slideentry {4}{2}{1}{58/67}{Outlook}{0}}
\headcommand {\beamer@framepages {58}{67}}
\headcommand {\slideentry {4}{2}{2}{68/71}{Outlook}{0}}
\headcommand {\beamer@framepages {68}{71}}
\headcommand {\beamer@partpages {1}{71}}
\headcommand {\beamer@subsectionpages {58}{71}}
\headcommand {\beamer@sectionpages {55}{71}}
\headcommand {\beamer@documentpages {71}}
\headcommand {\gdef \inserttotalframenumber {12}}
