\relax 
\providecommand\hyper@newdestlabel[2]{}
\providecommand\HyperFirstAtBeginDocument{\AtBeginDocument}
\HyperFirstAtBeginDocument{\ifx\hyper@anchor\@undefined
\global\let\oldcontentsline\contentsline
\gdef\contentsline#1#2#3#4{\oldcontentsline{#1}{#2}{#3}}
\global\let\oldnewlabel\newlabel
\gdef\newlabel#1#2{\newlabelxx{#1}#2}
\gdef\newlabelxx#1#2#3#4#5#6{\oldnewlabel{#1}{{#2}{#3}}}
\AtEndDocument{\ifx\hyper@anchor\@undefined
\let\contentsline\oldcontentsline
\let\newlabel\oldnewlabel
\fi}
\fi}
\global\let\hyper@last\relax 
\gdef\HyperFirstAtBeginDocument#1{#1}
\providecommand\HyField@AuxAddToFields[1]{}
\providecommand\HyField@AuxAddToCoFields[2]{}
\providecommand\pbs@newkey[2]{}
\providecommand\pbs@seq@push@cx[2]{}
\providecommand\pbs@at@end@dvi@check{}
\pbs@at@end@dvi@check
\providecommand\@anim@newkey[2]{}
\pbs@newkey{pbs@last@page}{1}
\babel@aux{english}{}
\@writefile{nav}{\headcommand {\slideentry {0}{0}{1}{1/1}{}{0}}}
\@writefile{nav}{\headcommand {\beamer@framepages {1}{1}}}
\pbs@newkey{pbs@last@page}{2}
\@writefile{nav}{\headcommand {\beamer@sectionpages {1}{1}}}
\@writefile{nav}{\headcommand {\beamer@subsectionpages {1}{1}}}
\@writefile{nav}{\headcommand {\sectionentry {1}{Introduction}{2}{Introduction}{0}}}
\pbs@newkey{pbs@last@page}{3}
\pbs@newkey{pbs@last@page}{4}
\pbs@newkey{pbs@last@page}{5}
\@writefile{nav}{\headcommand {\slideentry {1}{0}{1}{2/5}{}{0}}}
\@writefile{nav}{\headcommand {\beamer@framepages {2}{5}}}
\pbs@newkey{pbs@last@page}{6}
\@writefile{nav}{\headcommand {\beamer@subsectionpages {2}{5}}}
\@writefile{nav}{\headcommand {\beamer@subsectionentry {0}{1}{1}{6}{Structure}}}
\@writefile{nav}{\headcommand {\slideentry {1}{1}{1}{6/6}{Structure}{0}}}
\@writefile{nav}{\headcommand {\beamer@framepages {6}{6}}}
\pbs@newkey{pbs@last@page}{7}
\@writefile{toc}{\beamer@sectionintoc {2}{The Model}{7}{0}{1}}
\@writefile{nav}{\headcommand {\beamer@sectionpages {2}{6}}}
\@writefile{nav}{\headcommand {\beamer@subsectionpages {6}{6}}}
\@writefile{nav}{\headcommand {\sectionentry {2}{The Model}{7}{The Model}{0}}}
\@writefile{nav}{\headcommand {\slideentry {2}{0}{1}{7/7}{}{0}}}
\@writefile{nav}{\headcommand {\beamer@framepages {7}{7}}}
\pbs@newkey{pbs@last@page}{8}
\@writefile{toc}{\beamer@subsectionintoc {2}{1}{Idea}{8}{0}{1}}
\@writefile{nav}{\headcommand {\beamer@subsectionpages {7}{7}}}
\@writefile{nav}{\headcommand {\beamer@subsectionentry {0}{2}{1}{8}{Idea}}}
\pbs@newkey{pbs@last@page}{9}
\pbs@newkey{pbs@last@page}{10}
\pbs@newkey{pbs@last@page}{11}
\@writefile{nav}{\headcommand {\slideentry {2}{1}{1}{8/11}{Idea}{0}}}
\@writefile{nav}{\headcommand {\beamer@framepages {8}{11}}}
\pbs@newkey{pbs@last@page}{12}
\@writefile{toc}{\beamer@subsectionintoc {2}{2}{Concept}{12}{0}{1}}
\@writefile{nav}{\headcommand {\beamer@subsectionpages {8}{11}}}
\@writefile{nav}{\headcommand {\beamer@subsectionentry {0}{2}{2}{12}{Concept}}}
\pbs@newkey{pbs@last@page}{13}
\@writefile{nav}{\headcommand {\slideentry {2}{2}{1}{12/13}{Concept}{0}}}
\@writefile{nav}{\headcommand {\beamer@framepages {12}{13}}}
\pbs@newkey{pbs@last@page}{14}
\pbs@newkey{pbs@last@page}{15}
\@writefile{nav}{\headcommand {\slideentry {2}{2}{2}{14/15}{Concept}{0}}}
\@writefile{nav}{\headcommand {\beamer@framepages {14}{15}}}
\pbs@newkey{pbs@last@page}{16}
\pbs@newkey{pbs@last@page}{17}
\pbs@newkey{pbs@last@page}{18}
\pbs@newkey{pbs@last@page}{19}
\pbs@newkey{pbs@last@page}{20}
\@writefile{nav}{\headcommand {\slideentry {2}{2}{3}{16/20}{Concept}{0}}}
\@writefile{nav}{\headcommand {\beamer@framepages {16}{20}}}
\pbs@newkey{pbs@last@page}{21}
\pbs@newkey{pbs@last@page}{22}
\pbs@newkey{pbs@last@page}{23}
\pbs@newkey{pbs@last@page}{24}
\pbs@newkey{pbs@last@page}{25}
\pbs@newkey{pbs@last@page}{26}
\pbs@newkey{pbs@last@page}{27}
\pbs@newkey{pbs@last@page}{28}
\pbs@newkey{pbs@last@page}{29}
\@writefile{nav}{\headcommand {\slideentry {2}{2}{4}{21/29}{Concept}{0}}}
\@writefile{nav}{\headcommand {\beamer@framepages {21}{29}}}
\pbs@newkey{pbs@last@page}{30}
\@writefile{toc}{\beamer@sectionintoc {3}{Project Progress}{30}{0}{2}}
\@writefile{nav}{\headcommand {\beamer@sectionpages {7}{29}}}
\@writefile{nav}{\headcommand {\beamer@subsectionpages {12}{29}}}
\@writefile{nav}{\headcommand {\sectionentry {3}{Project Progress}{30}{Project Progress}{0}}}
\@writefile{nav}{\headcommand {\slideentry {3}{0}{1}{30/30}{}{0}}}
\@writefile{nav}{\headcommand {\beamer@framepages {30}{30}}}
\pbs@newkey{pbs@last@page}{31}
\@writefile{toc}{\beamer@subsectionintoc {3}{1}{Schedule}{31}{0}{2}}
\@writefile{nav}{\headcommand {\beamer@subsectionpages {30}{30}}}
\@writefile{nav}{\headcommand {\beamer@subsectionentry {0}{3}{1}{31}{Schedule}}}
\pbs@newkey{pbs@last@page}{32}
\pbs@newkey{pbs@last@page}{33}
\@writefile{nav}{\headcommand {\slideentry {3}{1}{1}{31/33}{Schedule}{0}}}
\@writefile{nav}{\headcommand {\beamer@framepages {31}{33}}}
\pbs@newkey{pbs@last@page}{34}
\@writefile{toc}{\beamer@subsectionintoc {3}{2}{Control Software}{34}{0}{2}}
\@writefile{nav}{\headcommand {\beamer@subsectionpages {31}{33}}}
\@writefile{nav}{\headcommand {\beamer@subsectionentry {0}{3}{2}{34}{Control Software}}}
\pbs@newkey{pbs@last@page}{35}
\pbs@newkey{pbs@last@page}{36}
\pbs@newkey{pbs@last@page}{37}
\pbs@newkey{pbs@last@page}{38}
\pbs@newkey{pbs@last@page}{39}
\pbs@newkey{pbs@last@page}{40}
\pbs@newkey{pbs@last@page}{41}
\@writefile{nav}{\headcommand {\slideentry {3}{2}{1}{34/41}{Control Software}{0}}}
\@writefile{nav}{\headcommand {\beamer@framepages {34}{41}}}
\pbs@newkey{pbs@last@page}{42}
\@writefile{toc}{\beamer@subsectionintoc {3}{3}{OGS}{42}{0}{2}}
\@writefile{nav}{\headcommand {\beamer@subsectionpages {34}{41}}}
\@writefile{nav}{\headcommand {\beamer@subsectionentry {0}{3}{3}{42}{OGS}}}
\pbs@newkey{pbs@last@page}{43}
\pbs@newkey{pbs@last@page}{44}
\pbs@newkey{pbs@last@page}{45}
\pbs@newkey{pbs@last@page}{46}
\pbs@newkey{pbs@last@page}{47}
\pbs@newkey{pbs@last@page}{48}
\pbs@newkey{pbs@last@page}{49}
\pbs@newkey{pbs@last@page}{50}
\pbs@newkey{pbs@last@page}{51}
\pbs@newkey{pbs@last@page}{52}
\pbs@newkey{pbs@last@page}{53}
\pbs@newkey{pbs@last@page}{54}
\@writefile{nav}{\headcommand {\slideentry {3}{3}{1}{42/54}{OGS}{0}}}
\@writefile{nav}{\headcommand {\beamer@framepages {42}{54}}}
\pbs@newkey{pbs@last@page}{55}
\@writefile{toc}{\beamer@sectionintoc {4}{\textbf {S}aline \textbf {A}quifer \textbf {L}iking \textbf {T}rees}{55}{0}{3}}
\@writefile{nav}{\headcommand {\beamer@sectionpages {30}{54}}}
\@writefile{nav}{\headcommand {\beamer@subsectionpages {42}{54}}}
\@writefile{nav}{\headcommand {\sectionentry {4}{\textbf {S}aline \textbf {A}quifer \textbf {L}iking \textbf {T}rees}{55}{\textbf {S}aline \textbf {A}quifer \textbf {L}iking \textbf {T}rees}{0}}}
\@writefile{nav}{\headcommand {\slideentry {4}{0}{1}{55/55}{}{0}}}
\@writefile{nav}{\headcommand {\beamer@framepages {55}{55}}}
\pbs@newkey{pbs@last@page}{56}
\@writefile{toc}{\beamer@subsectionintoc {4}{1}{Illustration}{56}{0}{3}}
\@writefile{nav}{\headcommand {\beamer@subsectionpages {55}{55}}}
\@writefile{nav}{\headcommand {\beamer@subsectionentry {0}{4}{1}{56}{Illustration}}}
\pbs@newkey{pbs@last@page}{57}
\@writefile{nav}{\headcommand {\slideentry {4}{1}{1}{56/57}{Illustration}{0}}}
\@writefile{nav}{\headcommand {\beamer@framepages {56}{57}}}
\pbs@newkey{pbs@last@page}{58}
\@writefile{toc}{\beamer@subsectionintoc {4}{2}{Outlook}{58}{0}{3}}
\@writefile{nav}{\headcommand {\beamer@subsectionpages {56}{57}}}
\@writefile{nav}{\headcommand {\beamer@subsectionentry {0}{4}{2}{58}{Outlook}}}
\pbs@newkey{pbs@last@page}{59}
\pbs@newkey{pbs@last@page}{60}
\pbs@newkey{pbs@last@page}{61}
\pbs@newkey{pbs@last@page}{62}
\pbs@newkey{pbs@last@page}{63}
\pbs@newkey{pbs@last@page}{64}
\pbs@newkey{pbs@last@page}{65}
\pbs@newkey{pbs@last@page}{66}
\pbs@newkey{pbs@last@page}{67}
\@writefile{nav}{\headcommand {\slideentry {4}{2}{1}{58/67}{Outlook}{0}}}
\@writefile{nav}{\headcommand {\beamer@framepages {58}{67}}}
\pbs@newkey{pbs@last@page}{68}
\pbs@newkey{pbs@last@page}{69}
\pbs@newkey{pbs@last@page}{70}
\pbs@newkey{pbs@last@page}{71}
\@writefile{nav}{\headcommand {\slideentry {4}{2}{2}{68/71}{Outlook}{0}}}
\@writefile{nav}{\headcommand {\beamer@framepages {68}{71}}}
\@writefile{nav}{\headcommand {\beamer@partpages {1}{71}}}
\@writefile{nav}{\headcommand {\beamer@subsectionpages {58}{71}}}
\@writefile{nav}{\headcommand {\beamer@sectionpages {55}{71}}}
\@writefile{nav}{\headcommand {\beamer@documentpages {71}}}
\@writefile{nav}{\headcommand {\gdef \inserttotalframenumber {12}}}
