\babel@toc {english}{}
\beamer@sectionintoc {2}{The Model}{7}{0}{1}
\beamer@subsectionintoc {2}{1}{Idea}{8}{0}{1}
\beamer@subsectionintoc {2}{2}{Concept}{12}{0}{1}
\beamer@sectionintoc {3}{Project Progress}{30}{0}{2}
\beamer@subsectionintoc {3}{1}{Schedule}{31}{0}{2}
\beamer@subsectionintoc {3}{2}{Control Software}{34}{0}{2}
\beamer@subsectionintoc {3}{3}{OGS}{42}{0}{2}
\beamer@sectionintoc {4}{\textbf {S}aline \textbf {A}quifer \textbf {L}iking \textbf {T}rees}{55}{0}{3}
\beamer@subsectionintoc {4}{1}{Illustration}{56}{0}{3}
\beamer@subsectionintoc {4}{2}{Outlook}{58}{0}{3}
