<?xml version="1.0" encoding="UTF-8" standalone="no"?>
<!-- Created with Inkscape (http://www.inkscape.org/) -->

<svg
   xmlns:dc="http://purl.org/dc/elements/1.1/"
   xmlns:cc="http://creativecommons.org/ns#"
   xmlns:rdf="http://www.w3.org/1999/02/22-rdf-syntax-ns#"
   xmlns:svg="http://www.w3.org/2000/svg"
   xmlns="http://www.w3.org/2000/svg"
   xmlns:xlink="http://www.w3.org/1999/xlink"
   xmlns:sodipodi="http://sodipodi.sourceforge.net/DTD/sodipodi-0.dtd"
   xmlns:inkscape="http://www.inkscape.org/namespaces/inkscape"
   width="245.85564mm"
   height="215.81357mm"
   viewBox="0 0 245.85564 215.81357"
   version="1.1"
   id="svg8"
   inkscape:version="0.92.3 (2405546, 2018-03-11)"
   sodipodi:docname="full_model_sketch.svg">
  <defs
     id="defs2">
    <linearGradient
       inkscape:collect="always"
       id="linearGradient7407">
      <stop
         style="stop-color:#000000;stop-opacity:1;"
         offset="0"
         id="stop7403" />
      <stop
         style="stop-color:#000000;stop-opacity:0;"
         offset="1"
         id="stop7405" />
    </linearGradient>
    <marker
       inkscape:stockid="Arrow1Lstart"
       orient="auto"
       refY="0"
       refX="0"
       id="marker7023"
       style="overflow:visible"
       inkscape:isstock="true">
      <path
         id="path7021"
         d="M 0,0 5,-5 -12.5,0 5,5 Z"
         style="fill:#008f00;fill-opacity:1;fill-rule:evenodd;stroke:#008f00;stroke-width:1.00000003pt;stroke-opacity:1"
         transform="matrix(0.8,0,0,0.8,10,0)"
         inkscape:connector-curvature="0" />
    </marker>
    <marker
       inkscape:stockid="Arrow1Lend"
       orient="auto"
       refY="0"
       refX="0"
       id="marker5275"
       style="overflow:visible"
       inkscape:isstock="true">
      <path
         id="path5273"
         d="M 0,0 5,-5 -12.5,0 5,5 Z"
         style="fill:#000000;fill-opacity:1;fill-rule:evenodd;stroke:#000000;stroke-width:1.00000003pt;stroke-opacity:1"
         transform="matrix(-0.8,0,0,-0.8,-10,0)"
         inkscape:connector-curvature="0" />
    </marker>
    <marker
       inkscape:stockid="Arrow1Lstart"
       orient="auto"
       refY="0"
       refX="0"
       id="marker5157"
       style="overflow:visible"
       inkscape:isstock="true">
      <path
         id="path5155"
         d="M 0,0 5,-5 -12.5,0 5,5 Z"
         style="fill:#000000;fill-opacity:1;fill-rule:evenodd;stroke:#000000;stroke-width:1.00000003pt;stroke-opacity:1"
         transform="matrix(0.8,0,0,0.8,10,0)"
         inkscape:connector-curvature="0" />
    </marker>
    <marker
       inkscape:isstock="true"
       style="overflow:visible"
       id="marker5039"
       refX="0"
       refY="0"
       orient="auto"
       inkscape:stockid="Arrow1Lstart">
      <path
         transform="matrix(0.8,0,0,0.8,10,0)"
         style="fill:#000000;fill-opacity:1;fill-rule:evenodd;stroke:#000000;stroke-width:1.00000003pt;stroke-opacity:1"
         d="M 0,0 5,-5 -12.5,0 5,5 Z"
         id="path5037"
         inkscape:connector-curvature="0" />
    </marker>
    <marker
       inkscape:isstock="true"
       style="overflow:visible"
       id="marker4633"
       refX="0"
       refY="0"
       orient="auto"
       inkscape:stockid="Arrow1Lstart"
       inkscape:collect="always">
      <path
         transform="matrix(0.8,0,0,0.8,10,0)"
         style="fill:#ff00e5;fill-opacity:1;fill-rule:evenodd;stroke:#ff00e5;stroke-width:1.00000003pt;stroke-opacity:1"
         d="M 0,0 5,-5 -12.5,0 5,5 Z"
         id="path4631"
         inkscape:connector-curvature="0" />
    </marker>
    <marker
       inkscape:stockid="Arrow1Lstart"
       orient="auto"
       refY="0"
       refX="0"
       id="marker3215"
       style="overflow:visible"
       inkscape:isstock="true">
      <path
         id="path3213"
         d="M 0,0 5,-5 -12.5,0 5,5 Z"
         style="fill:#000000;fill-opacity:1;fill-rule:evenodd;stroke:#000000;stroke-width:1.00000003pt;stroke-opacity:1"
         transform="matrix(0.8,0,0,0.8,10,0)"
         inkscape:connector-curvature="0" />
    </marker>
    <marker
       inkscape:stockid="Arrow1Lstart"
       orient="auto"
       refY="0"
       refX="0"
       id="marker3175"
       style="overflow:visible"
       inkscape:isstock="true">
      <path
         id="path3173"
         d="M 0,0 5,-5 -12.5,0 5,5 Z"
         style="fill:#000000;fill-opacity:1;fill-rule:evenodd;stroke:#000000;stroke-width:1.00000003pt;stroke-opacity:1"
         transform="matrix(0.8,0,0,0.8,10,0)"
         inkscape:connector-curvature="0" />
    </marker>
    <marker
       inkscape:stockid="Arrow1Lstart"
       orient="auto"
       refY="0"
       refX="0"
       id="Arrow1Lstart"
       style="overflow:visible"
       inkscape:isstock="true">
      <path
         id="path2891"
         d="M 0,0 5,-5 -12.5,0 5,5 Z"
         style="fill:#000000;fill-opacity:1;fill-rule:evenodd;stroke:#000000;stroke-width:1.00000003pt;stroke-opacity:1"
         transform="matrix(0.8,0,0,0.8,10,0)"
         inkscape:connector-curvature="0" />
    </marker>
    <marker
       inkscape:stockid="Arrow1Lstart"
       orient="auto"
       refY="0"
       refX="0"
       id="marker3287-0"
       style="overflow:visible"
       inkscape:isstock="true">
      <path
         inkscape:connector-curvature="0"
         id="path3285-9"
         d="M 0,0 5,-5 -12.5,0 5,5 Z"
         style="fill:#000000;fill-opacity:1;fill-rule:evenodd;stroke:#000000;stroke-width:1.00000003pt;stroke-opacity:1"
         transform="matrix(0.8,0,0,0.8,10,0)" />
    </marker>
    <marker
       inkscape:stockid="Arrow1Lend"
       orient="auto"
       refY="0"
       refX="0"
       id="Arrow1Lend-3"
       style="overflow:visible"
       inkscape:isstock="true">
      <path
         inkscape:connector-curvature="0"
         id="path2894-6"
         d="M 0,0 5,-5 -12.5,0 5,5 Z"
         style="fill:#000000;fill-opacity:1;fill-rule:evenodd;stroke:#000000;stroke-width:1.00000003pt;stroke-opacity:1"
         transform="matrix(-0.8,0,0,-0.8,-10,0)" />
    </marker>
    <marker
       inkscape:stockid="Arrow1Lstart"
       orient="auto"
       refY="0"
       refX="0"
       id="marker3287-0-7"
       style="overflow:visible"
       inkscape:isstock="true">
      <path
         inkscape:connector-curvature="0"
         id="path3285-9-9"
         d="M 0,0 5,-5 -12.5,0 5,5 Z"
         style="fill:#000000;fill-opacity:1;fill-rule:evenodd;stroke:#000000;stroke-width:1.00000003pt;stroke-opacity:1"
         transform="matrix(0.8,0,0,0.8,10,0)" />
    </marker>
    <marker
       inkscape:stockid="Arrow1Lstart"
       orient="auto"
       refY="0"
       refX="0"
       id="marker3287-0-7-3"
       style="overflow:visible"
       inkscape:isstock="true">
      <path
         inkscape:connector-curvature="0"
         id="path3285-9-9-7"
         d="M 0,0 5,-5 -12.5,0 5,5 Z"
         style="fill:#ff00e5;fill-opacity:1;fill-rule:evenodd;stroke:#ff00e5;stroke-width:1.00000003pt;stroke-opacity:1"
         transform="matrix(0.8,0,0,0.8,10,0)" />
    </marker>
    <marker
       inkscape:isstock="true"
       style="overflow:visible"
       id="marker4633-9"
       refX="0"
       refY="0"
       orient="auto"
       inkscape:stockid="Arrow1Lstart">
      <path
         inkscape:connector-curvature="0"
         transform="matrix(0.8,0,0,0.8,10,0)"
         style="fill:#fd0000;fill-opacity:1;fill-rule:evenodd;stroke:#fd0000;stroke-width:1.00000003pt;stroke-opacity:1"
         d="M 0,0 5,-5 -12.5,0 5,5 Z"
         id="path4631-2" />
    </marker>
    <marker
       inkscape:stockid="Arrow1Lstart"
       orient="auto"
       refY="0"
       refX="0"
       id="marker3287-0-7-3-2"
       style="overflow:visible"
       inkscape:isstock="true">
      <path
         inkscape:connector-curvature="0"
         id="path3285-9-9-7-8"
         d="M 0,0 5,-5 -12.5,0 5,5 Z"
         style="fill:#fd0000;fill-opacity:1;fill-rule:evenodd;stroke:#fd0000;stroke-width:1.00000003pt;stroke-opacity:1"
         transform="matrix(0.8,0,0,0.8,10,0)" />
    </marker>
    <marker
       inkscape:stockid="Arrow1Lend"
       orient="auto"
       refY="0"
       refX="0"
       id="marker5275-1"
       style="overflow:visible"
       inkscape:isstock="true">
      <path
         inkscape:connector-curvature="0"
         id="path5273-2"
         d="M 0,0 5,-5 -12.5,0 5,5 Z"
         style="fill:#0800e5;fill-opacity:1;fill-rule:evenodd;stroke:#0800e5;stroke-width:1.00000003pt;stroke-opacity:1"
         transform="matrix(-0.8,0,0,-0.8,-10,0)" />
    </marker>
    <marker
       inkscape:stockid="Arrow1Lend"
       orient="auto"
       refY="0"
       refX="0"
       id="marker5275-1-5"
       style="overflow:visible"
       inkscape:isstock="true">
      <path
         inkscape:connector-curvature="0"
         id="path5273-2-0"
         d="M 0,0 5,-5 -12.5,0 5,5 Z"
         style="fill:#000000;fill-opacity:1;fill-rule:evenodd;stroke:#000000;stroke-width:1.00000003pt;stroke-opacity:1"
         transform="matrix(-0.8,0,0,-0.8,-10,0)" />
    </marker>
    <linearGradient
       inkscape:collect="always"
       xlink:href="#linearGradient7407"
       id="linearGradient7409"
       x1="-138.42902"
       y1="238.79166"
       x2="-45.648754"
       y2="238.79166"
       gradientUnits="userSpaceOnUse" />
    <marker
       inkscape:stockid="Arrow1Lend"
       orient="auto"
       refY="0"
       refX="0"
       id="marker5275-1-6"
       style="overflow:visible"
       inkscape:isstock="true">
      <path
         inkscape:connector-curvature="0"
         id="path5273-2-3"
         d="M 0,0 5,-5 -12.5,0 5,5 Z"
         style="fill:#008f00;fill-opacity:1;fill-rule:evenodd;stroke:#008f00;stroke-width:1.00000003pt;stroke-opacity:1"
         transform="matrix(-0.8,0,0,-0.8,-10,0)" />
    </marker>
  </defs>
  <sodipodi:namedview
     id="base"
     pagecolor="#ffffff"
     bordercolor="#666666"
     borderopacity="1.0"
     inkscape:pageopacity="0.0"
     inkscape:pageshadow="2"
     inkscape:zoom="0.49497475"
     inkscape:cx="351.0639"
     inkscape:cy="418.53636"
     inkscape:document-units="mm"
     inkscape:current-layer="layer1"
     showgrid="false"
     inkscape:snap-object-midpoints="true"
     inkscape:object-nodes="false"
     inkscape:snap-midpoints="true"
     fit-margin-top="0"
     fit-margin-left="0"
     fit-margin-right="0"
     fit-margin-bottom="0"
     inkscape:window-width="1853"
     inkscape:window-height="1025"
     inkscape:window-x="67"
     inkscape:window-y="27"
     inkscape:window-maximized="1"
     inkscape:snap-global="false">
    <inkscape:grid
       type="xygrid"
       id="grid4621"
       originx="30.238101"
       originy="-93.738091" />
  </sodipodi:namedview>
  <metadata
     id="metadata5">
    <rdf:RDF>
      <cc:Work
         rdf:about="">
        <dc:format>image/svg+xml</dc:format>
        <dc:type
           rdf:resource="http://purl.org/dc/dcmitype/StillImage" />
        <dc:title></dc:title>
      </cc:Work>
    </rdf:RDF>
  </metadata>
  <g
     inkscape:label="Ebene 1"
     inkscape:groupmode="layer"
     id="layer1"
     transform="translate(30.238102,12.551662)">
    <g
       id="g2829"
       transform="translate(-34.773816,22.678561)">
      <rect
         y="56.607143"
         x="4.5357141"
         height="40.82143"
         width="69.547623"
         id="rect815"
         style="opacity:1;fill:#70ffff;fill-opacity:1;stroke:none;stroke-width:0.69999999;stroke-linejoin:round;stroke-miterlimit:4;stroke-dasharray:none;stroke-dashoffset:0;stroke-opacity:1;paint-order:stroke fill markers" />
      <text
         id="text819"
         y="80.225098"
         x="40.551258"
         style="font-style:normal;font-weight:normal;font-size:10.58333302px;line-height:1.25;font-family:sans-serif;text-align:center;letter-spacing:0px;word-spacing:0px;text-anchor:middle;fill:#000000;fill-opacity:1;stroke:none;stroke-width:0.26458332"
         xml:space="preserve"><tspan
           style="font-size:14.11111069px;text-align:center;text-anchor:middle;stroke-width:0.26458332"
           y="80.225098"
           x="40.551258"
           id="tspan817"
           sodipodi:role="line">SALT</tspan></text>
    </g>
    <g
       id="g2819"
       transform="translate(52.263908,72.905913)">
      <rect
         y="6.3797884"
         x="82.824783"
         height="40.82143"
         width="69.547623"
         id="rect815-3"
         style="opacity:1;fill:#00ff00;fill-opacity:1;stroke:none;stroke-width:0.69999999;stroke-linejoin:round;stroke-miterlimit:4;stroke-dasharray:none;stroke-dashoffset:0;stroke-opacity:1;paint-order:stroke fill markers" />
      <text
         id="text819-6"
         y="29.997755"
         x="118.84032"
         style="font-style:normal;font-weight:normal;font-size:10.58333302px;line-height:1.25;font-family:sans-serif;text-align:center;letter-spacing:0px;word-spacing:0px;text-anchor:middle;fill:#000000;fill-opacity:1;stroke:none;stroke-width:0.26458332"
         xml:space="preserve"><tspan
           style="font-size:14.11111069px;text-align:center;text-anchor:middle;stroke-width:0.26458332"
           y="29.997755"
           x="118.84032"
           id="tspan817-7"
           sodipodi:role="line">BETTINA</tspan></text>
    </g>
    <g
       id="g2824"
       transform="translate(50.660301,-87.489747)">
      <rect
         y="83.620689"
         x="84.428398"
         height="40.82143"
         width="69.547623"
         id="rect815-3-5"
         style="opacity:1;fill:#0083ff;fill-opacity:1;stroke:none;stroke-width:0.69999999;stroke-linejoin:round;stroke-miterlimit:4;stroke-dasharray:none;stroke-dashoffset:0;stroke-opacity:1;paint-order:stroke fill markers" />
      <text
         id="text819-6-3"
         y="107.23866"
         x="120.44393"
         style="font-style:normal;font-weight:normal;font-size:10.58333302px;line-height:1.25;font-family:sans-serif;text-align:center;letter-spacing:0px;word-spacing:0px;text-anchor:middle;fill:#000000;fill-opacity:1;stroke:none;stroke-width:0.26458332"
         xml:space="preserve"><tspan
           style="font-size:14.11111069px;text-align:center;text-anchor:middle;stroke-width:0.26458332"
           y="107.23866"
           x="120.44393"
           id="tspan817-7-5"
           sodipodi:role="line">OGS</tspan></text>
    </g>
    <g
       id="g2859"
       transform="translate(37.570835,42.333335)">
      <g
         transform="translate(14.693072,113.72735)"
         id="g2819-6">
        <rect
           style="opacity:1;fill:#d57700;fill-opacity:1;stroke:none;stroke-width:0.69999999;stroke-linejoin:round;stroke-miterlimit:4;stroke-dasharray:none;stroke-dashoffset:0;stroke-opacity:1;paint-order:stroke fill markers"
           id="rect815-3-2"
           width="69.547623"
           height="40.82143"
           x="82.824783"
           y="6.3797884" />
        <text
           xml:space="preserve"
           style="font-style:normal;font-weight:normal;font-size:10.58333302px;line-height:1.25;font-family:sans-serif;text-align:center;letter-spacing:0px;word-spacing:0px;text-anchor:middle;fill:#000000;fill-opacity:1;stroke:none;stroke-width:0.26458332"
           x="118.84032"
           y="29.997755"
           id="text819-6-9"><tspan
             sodipodi:role="line"
             id="tspan817-7-1"
             x="118.84032"
             y="29.997755"
             style="font-size:14.11111069px;text-align:center;text-anchor:middle;stroke-width:0.26458332">vtk</tspan></text>
      </g>
    </g>
    <g
       id="g4963"
       transform="translate(185.20833,1.1465697)"
       style="stroke:#ff00e5;stroke-opacity:1">
      <path
         inkscape:connector-curvature="0"
         id="path2867-0-2-5"
         d="m -56.456832,189.97028 -79.375028,-61.9881"
         style="fill:none;stroke:#ff00e5;stroke-width:1.10000002;stroke-linecap:butt;stroke-linejoin:miter;stroke-miterlimit:4;stroke-dasharray:none;stroke-opacity:1;marker-start:url(#marker3287-0-7-3)" />
      <path
         inkscape:connector-curvature="0"
         id="path4623"
         d="m -141.80726,106.5 h 85.844045"
         style="fill:none;stroke:#ff00e5;stroke-width:1.10000002;stroke-linecap:butt;stroke-linejoin:miter;stroke-miterlimit:4;stroke-dasharray:none;stroke-opacity:1;marker-start:url(#marker4633)" />
      <text
         id="text4715"
         y="129.34839"
         x="-131.37981"
         style="font-style:normal;font-weight:normal;font-size:10.58333302px;line-height:1.25;font-family:sans-serif;letter-spacing:0px;word-spacing:0px;fill:#ff00e5;fill-opacity:1;stroke:#ff00e5;stroke-width:0.26458332;stroke-opacity:1"
         xml:space="preserve"><tspan
           style="fill:#ff00e5;fill-opacity:1;stroke:#ff00e5;stroke-width:0.26458332;stroke-opacity:1"
           y="129.34839"
           x="-131.37981"
           id="tspan4713"
           sodipodi:role="line">Tree Allometry</tspan></text>
    </g>
    <g
       id="g4999"
       transform="translate(179.69459,-186.17845)"
       style="stroke:#fd0000;stroke-opacity:1">
      <path
         inkscape:connector-curvature="0"
         id="path2867-0-2-5-9"
         d="m -128.97358,256.02787 79.375035,-61.9881"
         style="fill:none;stroke:#fd0000;stroke-width:1.10000002;stroke-linecap:butt;stroke-linejoin:miter;stroke-miterlimit:4;stroke-dasharray:none;stroke-opacity:1;marker-start:url(#marker3287-0-7-3-2)" />
      <path
         inkscape:connector-curvature="0"
         id="path4623-7"
         d="M -50.941372,278.39096 H -138.42902"
         style="fill:none;stroke:#fd0000;stroke-width:1.10000002;stroke-linecap:butt;stroke-linejoin:miter;stroke-miterlimit:4;stroke-dasharray:none;stroke-opacity:1;marker-start:url(#marker4633-9)" />
      <text
         id="text4715-3"
         y="266.67371"
         x="-125.86607"
         style="font-style:normal;font-weight:normal;font-size:10.58333302px;line-height:1.25;font-family:sans-serif;letter-spacing:0px;word-spacing:0px;fill:#fd0000;fill-opacity:1;stroke:#fd0000;stroke-width:0.26458332;stroke-opacity:1"
         xml:space="preserve"><tspan
           style="fill:#fd0000;fill-opacity:1;stroke:#fd0000;stroke-width:0.26458332;stroke-opacity:1"
           y="266.67371"
           x="-125.86607"
           id="tspan4713-6"
           sodipodi:role="line">Aquifer Salinity</tspan></text>
    </g>
    <g
       id="g2829-9"
       transform="translate(-34.773816,22.678558)">
      <rect
         y="56.607143"
         x="4.5357141"
         height="40.82143"
         width="69.547623"
         id="rect815-31"
         style="opacity:1;fill:#70ffff;fill-opacity:1;stroke:none;stroke-width:0.69999999;stroke-linejoin:round;stroke-miterlimit:4;stroke-dasharray:none;stroke-dashoffset:0;stroke-opacity:1;paint-order:stroke fill markers" />
      <text
         id="text819-9"
         y="80.225098"
         x="40.551258"
         style="font-style:normal;font-weight:normal;font-size:10.58333302px;line-height:1.25;font-family:sans-serif;text-align:center;letter-spacing:0px;word-spacing:0px;text-anchor:middle;fill:#000000;fill-opacity:1;stroke:none;stroke-width:0.26458332"
         xml:space="preserve"><tspan
           style="font-size:14.11111069px;text-align:center;text-anchor:middle;stroke-width:0.26458332"
           y="80.225098"
           x="40.551258"
           id="tspan817-4"
           sodipodi:role="line">SALT</tspan></text>
    </g>
    <g
       id="g8491">
      <text
         transform="rotate(22.299496)"
         id="text6741"
         y="144.18199"
         x="91.487465"
         style="font-style:normal;font-weight:normal;font-size:10.58333302px;line-height:1.25;font-family:sans-serif;letter-spacing:0px;word-spacing:0px;fill:#0800e5;fill-opacity:1;stroke:#0800e5;stroke-width:0.26458332;stroke-opacity:1"
         xml:space="preserve"><tspan
           style="fill:#0800e5;fill-opacity:1;stroke:#0800e5;stroke-width:0.26458332;stroke-opacity:1"
           y="144.18199"
           x="91.487465"
           id="tspan6739"
           sodipodi:role="line">Grid Files</tspan></text>
      <g
         style="stroke:#0800e5;stroke-opacity:1"
         id="g6881">
        <path
           style="fill:none;stroke:#0800e5;stroke-width:1.10000002;stroke-linecap:butt;stroke-linejoin:miter;stroke-miterlimit:4;stroke-dasharray:none;stroke-opacity:1;marker-end:url(#marker5275-1)"
           d="M 128.85208,199.10418 C 119.39026,198.66857 23.761128,195.86675 6.529186,146.30227 4.6844974,140.99637 5.002795,135.62945 4.53571,130.69047"
           id="path5945-7"
           inkscape:connector-curvature="0"
           sodipodi:nodetypes="csc" />
      </g>
    </g>
    <g
       id="g8498">
      <g
         style="stroke:#008f00;stroke-opacity:1"
         transform="matrix(0.97695676,0.21343731,0.21343731,-0.97695676,-52.788022,175.96439)"
         id="g6881-3">
        <text
           xml:space="preserve"
           style="font-style:normal;font-weight:normal;font-size:10.58333302px;line-height:1.25;font-family:sans-serif;letter-spacing:0px;word-spacing:0px;fill:#008f00;fill-opacity:1;stroke:#008f00;stroke-width:0.26458332;stroke-opacity:1"
           x="116.01954"
           y="-116.10284"
           id="text6741-8-1"
           transform="matrix(0.82952499,0.5584696,0.5584696,-0.82952499,0,0)"><tspan
             sodipodi:role="line"
             id="tspan6739-4-0"
             x="116.01954"
             y="-116.10284"
             style="fill:#008f00;fill-opacity:1;stroke:#008f00;stroke-width:0.26458332;stroke-opacity:1">OGS - Input Files</tspan></text>
      </g>
      <g
         style="stroke:#000d00;stroke-width:1.10000002;stroke-miterlimit:4;stroke-dasharray:none;stroke-opacity:1"
         id="g6881-2"
         transform="matrix(1,0,0,-1,-0.37045929,199.60537)">
        <path
           style="fill:none;stroke:#008f00;stroke-width:1.10000002;stroke-linecap:butt;stroke-linejoin:miter;stroke-miterlimit:4;stroke-dasharray:none;stroke-opacity:1;marker-start:url(#marker7023)"
           d="M 128.85208,199.10418 C 119.39026,198.66857 23.761128,195.86675 6.529186,146.30227 4.6844974,140.99637 5.002795,135.62945 4.53571,130.69047"
           id="path5945-7-0"
           inkscape:connector-curvature="0"
           sodipodi:nodetypes="csc" />
      </g>
    </g>
  </g>
</svg>
